



:py:mod:`npz2txt` *module*
==========================

.. currentmodule:: labpy.utils

.. .. note::

..    | template = custom_module-template.rst
..    | Module=labpy.utils,
..    | FULLNAME=labpy.utils.npz2txt,
..    | name==npz2txt
..    | modules = 
..    | classes = []

.. automodule:: labpy.utils.npz2txt

   .. *** Insert submodule summary

   
   
   

   .. *** Insert attribute summary

   
   
   

   .. *** Insert exception summary

   
   
   


   .. *** Insert function summary

   
   
   

   .. *** Insert class summary

   
   
   



.. *** Insert attribute descriptions





.. *** Insert exceptions descriptions




.. *** Insert function descriptions




.. *** Insert class descriptions


