



:py:mod:`getS22` *module*
=========================

.. currentmodule:: labpy.utils

.. .. note::

..    | template = custom_module-template.rst
..    | Module=labpy.utils,
..    | FULLNAME=labpy.utils.getS22,
..    | name==getS22
..    | modules = 
..    | classes = []

.. automodule:: labpy.utils.getS22

   .. *** Insert submodule summary

   
   
   

   .. *** Insert attribute summary

   
   
   

   .. *** Insert exception summary

   
   
   


   .. *** Insert function summary

   
   
   

   .. *** Insert class summary

   
   
   



.. *** Insert attribute descriptions





.. *** Insert exceptions descriptions




.. *** Insert function descriptions




.. *** Insert class descriptions


