



:py:mod:`get_ip3` *module*
==========================

.. currentmodule:: labpy.utils

.. .. note::

..    | template = custom_module-template.rst
..    | Module=labpy.utils,
..    | FULLNAME=labpy.utils.get_ip3,
..    | name==get_ip3
..    | modules = 
..    | classes = []

.. automodule:: labpy.utils.get_ip3

   .. *** Insert submodule summary

   
   
   

   .. *** Insert attribute summary

   
   
   

   .. *** Insert exception summary

   
   
   


   .. *** Insert function summary

   
   
   

   .. *** Insert class summary

   
   
   



.. *** Insert attribute descriptions





.. *** Insert exceptions descriptions




.. *** Insert function descriptions




.. *** Insert class descriptions


